<svg xmlns="http://www.w3.org/2000/svg" class="icon icon-tabler icon-tabler-mood-crazy-happy" width="250px" height="250px" viewBox="0 0 24 24" stroke-width="1.00" stroke="rgba(255, 255, 255, 1)" fill="none" stroke-linecap="round" stroke-linejoin="round"><circle cx="50%" cy="50%" r="50%" stroke="none" stroke-width="0" fill="rgba(0, 0, 0, 1)"/><g transform="translate(2.40, 2.40) scale(0.8)"><path stroke="none" d="M0 0h24v24H0z" fill="none"/><circle cx="12" cy="12" r="9"/><line x1="7" y1="8.5" x2="10" y2="11.5"/><path d="M7 11.5l3 -3"/><line x1="14" y1="8.5" x2="17" y2="11.5"/><path d="M14 11.5l3 -3"/><path d="M9.5 15a3.5 3.5 0 0 0 5 0"/></g>
  
  
  
  
  
  
  
</svg>